…
#>           warm starting: on, polishing: off, 
#> iter  objective    prim res   dual res   gap        rel kkt    rho         time
#>    1  -2.5078e+01   2.38e-01   1.77e-01  -1.23e+00   2.38e-01   1.00e-01    1.10e+00s
#>   50  -2.6175e+01   2.37e-04   1.16e-06  -8.29e-05   2.37e-04   1.17e+00*   1.71e+00s
#>   75  -2.6175e+01   8.18e-09   1.22e-07  -5.70e-07   1.22e-07   1.17e+00    2.25e+00s
#> 
#> status:               solved
#> number of iterations: 75
#> optimal objective:    -26.1748
#> dual objective:       -26.1748
#> duality gap:          -5.6989e-07
#> primal-dual integral: 1.2345e+00
#> run time:             2.26e+00s
#> optimal rho estimate: 2.48e-01
#> # A tibble: 8,760 × 8
#>    datetime              price  load      x load_opt baseload flex_load flex_opt
#>    <dttm>                <dbl> <dbl>  <dbl>    <dbl>    <dbl>     <dbl>    <dbl>
#>  1 2025-01-01 00:00:00 0.00923 0.732 0.293     1.02     0.366     0.366    0.659
#>  2 2025-01-01 01:00:00 0.0112  0.575 0.290     0.865    0.287     0.287    0.577
#>  3 2025-01-01 02:00:00 0.01    0.535 0.288     0.823    0.268     0.268    0.556
#>  4 2025-01-01 03:00:00 0.01    0.530 0.286     0.815    0.265     0.265    0.551
#>  5 2025-01-01 04:00:00 0.01    0.541 0.281     0.822    0.271     0.271    0.551
#>  6 2025-01-01 05:00:00 0.008   0.416 0.267     0.683    0.208     0.208    0.475
#>  7 2025-01-01 06:00:00 0.008   0.458 0.238     0.696    0.229     0.229    0.467
#>  8 2025-01-01 07:00:00 0.0219  0.525 0.182     0.707    0.262     0.262    0.444
#>  9 2025-01-01 08:00:00 0.055   0.595 0.103     0.697    0.297     0.297    0.400
#> 10 2025-01-01 09:00:00 0.091   0.688 0.0207    0.709    0.344     0.344    0.365
#> # ℹ 8,750 more rows
```
…
